<?xml version="1.0" standalone="no"?>
<!DOCTYPE svg PUBLIC "-//W3C//DTD SVG 1.1//EN" "http://www.w3.org/Graphics/SVG/1.1/DTD/svg11.dtd">
<svg xmlns="http://www.w3.org/2000/svg">
<metadata>Copyright (C) 2014 by original authors @ fontello.com</metadata>
<defs>
<font id="split-me" horiz-adv-x="1000" >
<font-face font-family="split-me" font-weight="400" font-stretch="normal" units-per-em="1000" ascent="850" descent="-150" />
<missing-glyph horiz-adv-x="1000" />
<glyph glyph-name="user-1" unicode="&#xe808;" d="m786 66q0-67-41-106t-108-39h-488q-67 0-108 39t-41 106q0 30 2 58t8 61t15 60t24 55t34 45t48 30t62 11q5 0 24-12t41-27t60-27t75-12t74 12t61 27t41 27t24 12q34 0 62-11t48-30t34-45t24-55t15-60t8-61t2-58z m-179 498q0-88-63-151t-151-63t-152 63t-62 151t62 152t152 63t151-63t63-152z" horiz-adv-x="785.7" />
<glyph glyph-name="eye-1" unicode="&#xe809;" d="m929 314q-85 132-213 197q34-58 34-125q0-104-73-177t-177-73t-177 73t-73 177q0 67 34 125q-128-65-213-197q75-114 187-182t242-68t242 68t187 182z m-402 215q0 11-8 19t-19 7q-70 0-120-50t-50-119q0-12 8-19t19-8t19 8t8 19q0 48 34 82t82 34q11 0 19 8t8 19z m473-215q0-19-11-38q-78-129-210-206t-279-77t-279 77t-210 206q-11 19-11 38t11 39q78 128 210 205t279 78t279-78t210-205q11-20 11-39z" horiz-adv-x="1000" />
<glyph glyph-name="tags" unicode="&#xe803;" d="m250 600q0 30-21 51t-50 20t-51-20t-21-51t21-50t51-21t50 21t21 50z m595-321q0-30-20-51l-274-274q-22-21-51-21q-30 0-50 21l-399 399q-21 21-36 57t-15 65v232q0 29 21 50t50 22h233q29 0 65-15t57-36l399-399q20-21 20-50z m215 0q0-30-21-51l-274-274q-22-21-51-21q-20 0-33 8t-29 25l262 262q21 21 21 51q0 29-21 50l-399 399q-21 21-57 36t-65 15h125q29 0 65-15t57-36l399-399q21-21 21-50z" horiz-adv-x="1071.4" />
<glyph glyph-name="chat-1" unicode="&#xe80a;" d="m786 421q0-77-53-143t-143-104t-197-38q-48 0-98 9q-70-49-155-72q-21-5-48-9h-2q-6 0-12 5t-6 12q-1 1-1 3t1 4t1 3l1 3t2 3t2 3t3 3t2 2q3 3 13 14t15 16t12 17t14 21t11 25q-69 40-108 98t-40 125q0 78 53 144t143 104t197 38t197-38t143-104t53-144z m214-142q0-67-40-126t-108-98q5-14 11-25t14-21t13-16t14-17t13-14q0 0 2-2t3-3t2-3t2-3l1-3t1-3t1-4t-1-3q-2-8-7-13t-13-4q-27 4-48 9q-85 23-155 72q-50-9-98-9q-151 0-263 74q32-3 49-3q90 0 172 25t148 72q69 52 107 119t37 141q0 43-13 85q72-39 114-99t42-128z" horiz-adv-x="1000" />
<glyph glyph-name="folder-open" unicode="&#xe80b;" d="m1049 319q0-18-18-37l-187-221q-24-28-67-48t-81-20h-607q-19 0-33 7t-15 24q0 17 17 37l188 221q24 28 67 48t80 20h607q19 0 34-7t15-24z m-192 192v-90h-464q-53 0-110-26t-92-67l-188-221l-2-3q0 2-1 7t0 7v536q0 51 37 88t88 37h179q51 0 88-37t37-88v-18h303q51 0 88-37t37-88z" horiz-adv-x="1071.4" />
<glyph glyph-name="calendar-empty" unicode="&#xe80c;" d="m71-79h786v572h-786v-572z m215 679v161q0 8-5 13t-13 5h-36q-8 0-13-5t-5-13v-161q0-8 5-13t13-5h36q8 0 13 5t5 13z m428 0v161q0 8-5 13t-13 5h-35q-8 0-13-5t-5-13v-161q0-8 5-13t13-5h35q8 0 13 5t5 13z m215 36v-715q0-29-22-50t-50-21h-786q-29 0-50 21t-21 50v715q0 29 21 50t50 21h72v54q0 36 26 63t63 26h36q37 0 63-26t26-63v-54h214v54q0 36 27 63t63 26h35q37 0 63-26t27-63v-54h71q29 0 50-21t22-50z" horiz-adv-x="928.6" />
<glyph glyph-name="angle-left" unicode="&#xe80d;" d="m350 546q0-7-6-12l-219-220l219-219q6-6 6-13t-6-13l-28-28q-5-5-12-5t-13 5l-260 260q-6 6-6 13t6 13l260 260q5 6 13 6t12-6l28-28q6-5 6-13z" horiz-adv-x="357.1" />
<glyph glyph-name="angle-right" unicode="&#xe80e;" d="m332 314q0-7-6-13l-260-260q-5-5-12-5t-13 5l-28 28q-6 6-6 13t6 13l219 219l-219 220q-6 5-6 12t6 13l28 28q5 6 13 6t12-6l260-260q6-5 6-13z" horiz-adv-x="357.1" />
</font>
</defs>
</svg>